The Adjacent Matrix
ATP AccoA CO2 CellWall DAG DHAP DHAP_p F16bP F6P F6P_p Fru Fru_v G6P G6P_p GAP Glc Glc_in Glc_up Glc_v NADH NADPH NRJ1 NRJ1b NRJ2_Vkgdh_Vsdh_Vfum OAA PEP PEP_p Ru5P_p Suc Suc_v Tg6p Tpep Ttp UDPG Vac_c Vac_f Vac_g Vac_m Vac_s Vaco_Vidh Vala Vala_out Vald Vasp_out_Vasp Vat_Vss_Vpglm_p Vcl Vcs Vcw Vepi_p Vfbp Vg6pdh_Vepi_Tx5p Vg6pdh_p Vgapdh_Vpgk_Vpgm_Veno Vgapdh_p Vgdh Vgl_out Vhk1 Vhk2 Vinv Vmdh Vme Vpdh Vpepc Vpfk Vpfk_p_Vald_p_Vtpi_p Vpgi Vpgi_p Vpk Vpk_p_Vpdh_p_VFAx_Vdag_Vglyc3P Vrbco Vriso_p_Vtkx_p_Vtald_p Vsps_Vspace Vsusy Vtpi Vut_NRJ3_Vpglm X5P_p aKG ala ala_in ala_out ala_up asp_out cit cit_v gl_out gln_in gln_up_Vgs glu mal mal_v pyr starch 
0 0 0 0 0 0 0 0 0 0 0 0 0 0 0 0 0 0 0 0 0 1 1 1 0 0 0 0 0 0 0 0 0 0 0 0 0 0 0 0 0 0 0 0 1 1 0 0 0 0 0 0 1 1 0 0 1 1 0 0 0 0 0 1 1 0 0 1 1 0 0 0 0 0 1 0 0 0 0 0 0 0 0 0 0 0 0 0 0 0 0 0 
0 0 0 0 0 0 0 0 0 0 0 0 0 0 0 0 0 0 0 0 0 0 0 0 0 0 0 0 0 0 0 0 0 0 0 0 0 0 0 0 0 0 0 0 0 1 1 0 0 0 0 0 0 0 0 0 0 0 0 0 0 1 0 0 0 0 0 0 1 0 0 0 0 0 0 0 0 0 0 0 0 0 0 0 0 0 0 0 0 0 0 0 
0 0 0 0 0 0 0 0 0 0 0 0 0 0 0 0 0 0 0 0 0 0 0 1 0 0 0 0 0 0 0 0 0 0 0 0 0 0 0 1 0 0 0 0 0 0 0 0 0 0 1 1 0 0 0 0 0 0 0 0 1 1 1 0 0 0 0 0 1 1 0 0 0 0 0 0 0 0 0 0 0 0 0 0 0 0 0 0 0 0 0 0 
0 0 0 0 0 0 0 0 0 0 0 0 0 0 0 0 0 0 0 0 0 0 0 0 0 0 0 0 0 0 0 0 0 0 0 0 0 0 0 0 0 0 0 0 0 0 0 1 0 0 0 0 0 0 0 0 0 0 0 0 0 0 0 0 0 0 0 0 0 0 0 0 0 0 0 0 0 0 0 0 0 0 0 0 0 0 0 0 0 0 0 0 
0 0 0 0 0 0 0 0 0 0 0 0 0 0 0 0 0 0 0 0 0 0 0 0 0 0 0 0 0 0 0 0 0 0 0 0 0 0 0 0 0 0 0 0 0 0 0 0 0 0 0 0 0 0 0 0 0 0 0 0 0 0 0 0 0 0 0 0 1 0 0 0 0 0 0 0 0 0 0 0 0 0 0 0 0 0 0 0 0 0 0 0 
0 0 0 0 0 0 0 0 0 0 0 0 0 0 0 0 0 0 0 0 0 0 0 0 0 0 0 0 0 0 0 0 1 0 0 0 0 0 0 0 0 0 1 0 0 0 0 0 0 0 0 0 0 0 0 0 0 0 0 0 0 0 0 0 0 0 0 0 0 0 0 0 0 1 0 0 0 0 0 0 0 0 0 0 0 0 0 0 0 0 0 0 
0 0 0 0 0 0 0 0 0 0 0 0 0 0 0 0 0 0 0 0 0 0 0 0 0 0 0 0 0 0 0 0 1 0 0 0 0 0 0 0 0 0 0 0 0 0 0 0 0 0 0 0 0 1 0 0 0 0 0 0 0 0 0 0 1 0 0 0 1 1 1 0 0 0 0 0 0 0 0 0 0 0 0 0 0 0 0 0 0 0 0 0 
0 0 0 0 0 0 0 0 0 0 0 0 0 0 0 0 0 0 0 0 0 0 0 0 0 0 0 0 0 0 0 0 0 0 0 0 0 0 0 0 0 0 1 0 0 0 0 0 0 1 0 0 0 0 0 0 0 0 0 0 0 0 0 1 0 0 0 0 0 0 0 0 0 0 0 0 0 0 0 0 0 0 0 0 0 0 0 0 0 0 0 0 
0 0 0 0 0 0 0 0 0 0 0 0 0 0 0 0 0 0 0 0 0 0 0 0 0 0 0 0 0 0 0 0 0 0 0 0 0 0 0 0 0 0 0 0 0 0 0 0 0 1 0 0 0 0 0 0 1 0 0 0 0 0 0 1 0 1 0 0 0 0 0 1 0 0 0 0 0 0 0 0 0 0 0 0 0 0 0 0 0 0 0 0 
0 0 0 0 0 0 0 0 0 0 0 0 0 0 0 0 0 0 0 0 0 0 0 0 0 0 0 0 0 0 0 0 0 0 0 0 0 0 0 0 0 0 0 0 0 0 0 0 0 0 0 0 0 0 0 0 0 0 0 0 0 0 0 0 1 0 1 0 0 0 1 0 0 0 0 0 0 0 0 0 0 0 0 0 0 0 0 0 0 0 0 0 
0 0 0 0 0 0 0 0 0 0 0 0 0 0 0 0 0 0 0 0 0 0 0 0 0 0 0 0 0 0 0 0 0 0 0 1 0 0 0 0 0 0 0 0 0 0 0 0 0 0 0 0 0 0 0 0 1 0 1 0 0 0 0 0 0 0 0 0 0 0 0 0 1 0 0 0 0 0 0 0 0 0 0 0 0 0 0 0 0 0 0 0 
0 0 0 0 0 0 0 0 0 0 0 0 0 0 0 0 0 0 0 0 0 0 0 0 0 0 0 0 0 0 0 0 0 0 0 1 0 0 0 0 0 0 0 0 0 0 0 0 0 0 0 0 0 0 0 0 0 0 0 0 0 0 0 0 0 0 0 0 0 0 0 0 0 0 0 0 0 0 0 0 0 0 0 0 0 0 0 0 0 0 0 0 
0 0 0 0 0 0 0 0 0 0 0 0 0 0 0 0 0 0 0 0 0 0 0 0 0 0 0 0 0 0 1 0 0 0 0 0 0 0 0 0 0 0 0 0 0 0 0 0 0 0 1 0 0 0 0 0 0 1 0 0 0 0 0 0 0 1 0 0 0 0 0 0 0 0 1 0 0 0 0 0 0 0 0 0 0 0 0 0 0 0 0 0 
0 0 0 0 0 0 0 0 0 0 0 0 0 0 0 0 0 0 0 0 0 0 0 0 0 0 0 0 0 0 1 0 0 0 0 0 0 0 0 0 0 0 0 0 1 0 0 0 0 0 0 1 0 0 0 0 0 0 0 0 0 0 0 0 0 0 1 0 0 0 0 0 0 0 0 0 0 0 0 0 0 0 0 0 0 0 0 0 0 0 0 0 
0 0 0 0 0 0 0 0 0 0 0 0 0 0 0 0 0 0 0 0 0 0 0 0 0 0 0 0 0 0 0 0 0 0 0 0 0 0 0 0 0 0 1 0 0 0 0 0 0 0 0 0 1 0 0 0 0 0 0 0 0 0 0 0 0 0 0 0 0 0 0 0 0 1 0 0 0 0 0 0 0 0 0 0 0 0 0 0 0 0 0 0 
0 0 0 0 0 0 0 0 0 0 0 0 0 0 0 0 0 1 0 0 0 0 0 0 0 0 0 0 0 0 0 0 0 0 0 0 1 0 0 0 0 0 0 0 0 0 0 0 0 0 0 0 0 0 0 0 0 1 1 0 0 0 0 0 0 0 0 0 0 0 0 0 0 0 0 0 0 0 0 0 0 0 0 0 0 0 0 0 0 0 0 0 
0 0 0 0 0 0 0 0 0 0 0 0 0 0 0 0 0 1 0 0 0 0 0 0 0 0 0 0 0 0 0 0 0 0 0 0 0 0 0 0 0 0 0 0 0 0 0 0 0 0 0 0 0 0 0 0 0 0 0 0 0 0 0 0 0 0 0 0 0 0 0 0 0 0 0 0 0 0 0 0 0 0 0 0 0 0 0 0 0 0 0 0 
0 0 0 0 0 0 0 0 0 0 0 0 0 0 0 1 1 0 0 0 0 0 0 0 0 0 0 0 0 0 0 0 0 0 0 0 0 0 0 0 0 0 0 0 0 0 0 0 0 0 0 0 0 0 0 0 0 0 0 0 0 0 0 0 0 0 0 0 0 0 0 0 0 0 0 0 0 0 0 0 0 0 0 0 0 0 0 0 0 0 0 0 
0 0 0 0 0 0 0 0 0 0 0 0 0 0 0 0 0 0 0 0 0 0 0 0 0 0 0 0 0 0 0 0 0 0 0 0 1 0 0 0 0 0 0 0 0 0 0 0 0 0 0 0 0 0 0 0 0 0 0 0 0 0 0 0 0 0 0 0 0 0 0 0 0 0 0 0 0 0 0 0 0 0 0 0 0 0 0 0 0 0 0 0 
0 0 0 0 0 0 0 0 0 0 0 0 0 0 0 0 0 0 0 0 0 1 0 1 0 0 0 0 0 0 0 0 0 0 0 0 0 0 0 1 0 0 0 0 0 0 0 0 0 0 0 0 1 1 1 0 0 0 0 1 1 1 0 0 0 0 0 0 1 0 0 0 0 0 0 0 0 0 0 0 0 0 0 0 0 0 0 0 0 0 0 0 
0 0 0 0 0 0 0 0 0 0 0 0 0 0 0 0 0 0 0 0 0 0 1 0 0 0 0 0 0 0 0 0 0 0 0 0 0 0 0 0 0 0 0 0 0 0 0 0 0 0 1 1 0 0 0 0 0 0 0 0 0 0 0 0 0 0 0 0 1 0 0 0 0 0 0 0 0 0 0 0 0 0 0 0 0 0 1 0 0 0 0 0 
1 0 0 0 0 0 0 0 0 0 0 0 0 0 0 0 0 0 0 1 0 0 0 0 0 0 0 0 0 0 0 0 0 0 0 0 0 0 0 0 0 0 0 0 0 0 0 0 0 0 0 0 0 0 0 0 0 0 0 0 0 0 0 0 0 0 0 0 0 0 0 0 0 0 0 0 0 0 0 0 0 0 0 0 0 0 0 0 0 0 0 0 
1 0 0 0 0 0 0 0 0 0 0 0 0 0 0 0 0 0 0 0 1 0 0 0 0 0 0 0 0 0 0 0 0 0 0 0 0 0 0 0 0 0 0 0 0 0 0 0 0 0 0 0 0 0 0 0 0 0 0 0 0 0 0 0 0 0 0 0 0 0 0 0 0 0 0 0 0 0 0 0 0 0 0 0 0 0 0 0 0 0 0 0 
1 0 1 0 0 0 0 0 0 0 0 0 0 0 0 0 0 0 0 1 0 0 0 0 0 0 0 0 0 0 0 0 0 0 0 0 0 0 0 0 0 0 0 0 0 0 0 0 0 0 0 0 0 0 0 0 0 0 0 0 0 0 0 0 0 0 0 0 0 0 0 0 0 0 0 0 1 0 0 0 0 0 0 0 0 0 0 0 1 0 0 0 
0 0 0 0 0 0 0 0 0 0 0 0 0 0 0 0 0 0 0 0 0 0 0 0 0 0 0 0 0 0 0 0 0 0 0 0 0 0 0 0 0 0 0 1 0 1 1 0 0 0 0 0 0 0 0 0 0 0 0 1 0 0 1 0 0 0 0 0 0 0 0 0 0 0 0 0 0 0 0 0 0 0 0 0 0 0 0 0 0 0 0 0 
0 0 0 0 0 0 0 0 0 0 0 0 0 0 0 0 0 0 0 0 0 0 0 0 0 0 0 0 0 0 0 1 0 0 0 0 0 0 0 0 0 0 0 0 0 0 0 0 0 0 0 0 1 0 0 0 0 0 0 0 0 0 1 0 0 0 0 1 0 0 0 0 0 0 0 0 0 0 0 0 0 0 0 0 0 0 0 0 0 0 0 0 
0 0 0 0 0 0 0 0 0 0 0 0 0 0 0 0 0 0 0 0 0 0 0 0 0 0 0 0 0 0 0 1 0 0 0 0 0 0 0 0 0 0 0 0 0 0 0 0 0 0 0 0 0 1 0 0 0 0 0 0 0 0 0 0 0 0 0 0 1 0 0 0 0 0 0 0 0 0 0 0 0 0 0 0 0 0 0 0 0 0 0 0 
0 0 0 0 0 0 0 0 0 0 0 0 0 0 0 0 0 0 0 0 0 0 0 0 0 0 0 0 0 0 0 0 0 0 0 0 0 0 0 0 0 0 0 0 0 0 0 0 1 0 0 1 0 0 0 0 0 0 0 0 0 0 0 0 0 0 0 0 0 1 1 0 0 0 0 0 0 0 0 0 0 0 0 0 0 0 0 0 0 0 0 0 
0 0 0 0 0 0 0 0 0 0 0 0 0 0 0 0 0 0 0 0 0 0 0 0 0 0 0 0 0 0 0 0 0 0 0 0 0 0 1 0 0 0 0 0 0 0 0 0 0 0 0 0 0 0 0 0 0 0 1 0 0 0 0 0 0 0 0 0 0 0 0 1 1 0 0 0 0 0 0 0 0 0 0 0 0 0 0 0 0 0 0 0 
0 0 0 0 0 0 0 0 0 0 0 0 0 0 0 0 0 0 0 0 0 0 0 0 0 0 0 0 0 0 0 0 0 0 0 0 0 0 1 0 0 0 0 0 0 0 0 0 0 0 0 0 0 0 0 0 0 0 0 0 0 0 0 0 0 0 0 0 0 0 0 0 0 0 0 0 0 0 0 0 0 0 0 0 0 0 0 0 0 0 0 0 
0 0 0 0 0 0 0 0 0 0 0 0 1 1 0 0 0 0 0 0 0 0 0 0 0 0 0 0 0 0 0 0 0 0 0 0 0 0 0 0 0 0 0 0 0 0 0 0 0 0 0 0 0 0 0 0 0 0 0 0 0 0 0 0 0 0 0 0 0 0 0 0 0 0 0 0 0 0 0 0 0 0 0 0 0 0 0 0 0 0 0 0 
0 0 0 0 0 0 0 0 0 0 0 0 0 0 0 0 0 0 0 0 0 0 0 0 0 1 1 0 0 0 0 0 0 0 0 0 0 0 0 0 0 0 0 0 0 0 0 0 0 0 0 0 0 0 0 0 0 0 0 0 0 0 0 0 0 0 0 0 0 0 0 0 0 0 0 0 0 0 0 0 0 0 0 0 0 0 0 0 0 0 0 0 
0 0 0 0 0 1 1 0 0 0 0 0 0 0 0 0 0 0 0 0 0 0 0 0 0 0 0 0 0 0 0 0 0 0 0 0 0 0 0 0 0 0 0 0 0 0 0 0 0 0 0 0 0 0 0 0 0 0 0 0 0 0 0 0 0 0 0 0 0 0 0 0 0 0 0 0 0 0 0 0 0 0 0 0 0 0 0 0 0 0 0 0 
0 0 0 0 0 0 0 0 0 0 0 0 0 0 0 0 0 0 0 0 0 0 0 0 0 0 0 0 0 0 0 0 0 0 0 0 0 0 0 0 0 0 0 0 0 0 0 1 0 0 0 0 0 0 0 0 0 0 0 0 0 0 0 0 0 0 0 0 0 0 0 1 1 0 1 0 0 0 0 0 0 0 0 0 0 0 0 0 0 0 0 0 
0 0 0 0 0 0 0 0 0 0 0 0 0 0 0 0 0 0 0 0 0 0 0 0 0 0 0 0 0 0 0 0 0 0 0 0 0 0 0 0 0 0 0 0 0 0 0 0 0 0 0 0 0 0 0 0 0 0 0 0 0 0 0 0 0 0 0 0 0 0 0 0 0 0 0 0 0 0 0 0 0 0 1 1 0 0 0 0 0 0 0 0 
0 0 0 0 0 0 0 0 0 0 1 1 0 0 0 0 0 0 0 0 0 0 0 0 0 0 0 0 0 0 0 0 0 0 0 0 0 0 0 0 0 0 0 0 0 0 0 0 0 0 0 0 0 0 0 0 0 0 0 0 0 0 0 0 0 0 0 0 0 0 0 0 0 0 0 0 0 0 0 0 0 0 0 0 0 0 0 0 0 0 0 0 
0 0 0 0 0 0 0 0 0 0 0 0 0 0 0 1 0 0 1 0 0 0 0 0 0 0 0 0 0 0 0 0 0 0 0 0 0 0 0 0 0 0 0 0 0 0 0 0 0 0 0 0 0 0 0 0 0 0 0 0 0 0 0 0 0 0 0 0 0 0 0 0 0 0 0 0 0 0 0 0 0 0 0 0 0 0 0 0 0 0 0 0 
0 0 0 0 0 0 0 0 0 0 0 0 0 0 0 0 0 0 0 0 0 0 0 0 0 0 0 0 0 0 0 0 0 0 0 0 0 0 0 0 0 0 0 0 0 0 0 0 0 0 0 0 0 0 0 0 0 0 0 0 0 0 0 0 0 0 0 0 0 0 0 0 0 0 0 0 0 0 0 0 0 0 0 0 0 0 0 0 1 1 0 0 
0 0 0 0 0 0 0 0 0 0 0 0 0 0 0 0 0 0 0 0 0 0 0 0 0 0 0 0 1 1 0 0 0 0 0 0 0 0 0 0 0 0 0 0 0 0 0 0 0 0 0 0 0 0 0 0 0 0 0 0 0 0 0 0 0 0 0 0 0 0 0 0 0 0 0 0 0 0 0 0 0 0 0 0 0 0 0 0 0 0 0 0 
0 0 1 0 0 0 0 0 0 0 0 0 0 0 0 0 0 0 0 1 0 0 0 0 0 0 0 0 0 0 0 0 0 0 0 0 0 0 0 0 0 0 0 0 0 0 0 0 0 0 0 0 0 0 0 0 0 0 0 0 0 0 0 0 0 0 0 0 0 0 0 0 0 0 0 0 1 0 0 0 0 0 1 0 0 0 0 0 0 0 0 0 
0 0 0 0 0 0 0 0 0 0 0 0 0 0 0 0 0 0 0 0 0 0 0 0 0 0 0 0 0 0 0 0 0 0 0 0 0 0 0 0 0 0 0 0 0 0 0 0 0 0 0 0 0 0 0 0 0 0 0 0 0 0 0 0 0 0 0 0 0 0 0 0 0 0 0 0 1 1 0 0 0 0 0 0 0 0 0 1 0 0 1 0 
0 0 0 0 0 0 0 0 0 0 0 0 0 0 0 0 0 0 0 0 0 0 0 0 0 0 0 0 0 0 0 0 0 0 0 0 0 0 0 0 0 0 0 0 0 0 0 0 0 0 0 0 0 0 0 0 0 0 0 0 0 0 0 0 0 0 0 0 0 0 0 0 0 0 0 0 0 1 0 1 0 0 0 0 0 0 0 0 0 0 0 0 
0 0 0 0 0 1 0 1 0 0 0 0 0 0 1 0 0 0 0 0 0 0 0 0 0 0 0 0 0 0 0 0 0 0 0 0 0 0 0 0 0 0 0 0 0 0 0 0 0 0 0 0 0 0 0 0 0 0 0 0 0 0 0 0 0 0 0 0 0 0 0 0 0 0 0 0 0 0 0 0 0 0 0 0 0 0 0 0 0 0 0 0 
0 0 0 0 0 0 0 0 0 0 0 0 0 0 0 0 0 0 0 0 0 0 0 0 1 0 0 0 0 0 0 0 0 0 0 0 0 0 0 0 0 0 0 0 0 0 0 0 0 0 0 0 0 0 0 0 0 0 0 0 0 0 0 0 0 0 0 0 0 0 0 0 0 0 0 0 1 0 0 0 0 1 0 0 0 0 0 1 0 0 0 0 
1 0 0 0 0 0 0 0 0 0 0 0 0 1 0 0 0 0 0 0 0 0 0 0 0 0 0 0 0 0 0 0 0 0 0 0 0 0 0 0 0 0 0 0 0 0 0 0 0 0 0 0 0 0 0 0 0 0 0 0 0 0 0 0 0 0 0 0 0 0 0 0 0 0 0 0 0 0 0 0 0 0 0 0 0 0 0 0 0 0 0 1 
1 1 0 0 0 0 0 0 0 0 0 0 0 0 0 0 0 0 0 0 0 0 0 0 1 0 0 0 0 0 0 0 0 0 0 0 0 0 0 0 0 0 0 0 0 0 0 0 0 0 0 0 0 0 0 0 0 0 0 0 0 0 0 0 0 0 0 0 0 0 0 0 0 0 0 0 0 0 0 0 0 0 1 0 0 0 0 0 0 0 0 0 
0 1 0 0 0 0 0 0 0 0 0 0 0 0 0 0 0 0 0 0 0 0 0 0 1 0 0 0 0 0 0 0 0 0 0 0 0 0 0 0 0 0 0 0 0 0 0 0 0 0 0 0 0 0 0 0 0 0 0 0 0 0 0 0 0 0 0 0 0 0 0 0 0 0 0 0 0 0 0 0 0 0 1 0 0 0 0 0 0 0 0 0 
0 0 0 1 0 0 0 0 0 0 0 0 0 0 0 0 0 0 0 0 0 0 0 0 0 0 0 0 0 0 0 0 0 1 0 0 0 0 0 0 0 0 0 0 0 0 0 0 0 0 0 0 0 0 0 0 0 0 0 0 0 0 0 0 0 0 0 0 0 0 0 0 0 0 0 0 0 0 0 0 0 0 0 0 0 0 0 0 0 0 0 0 
0 0 0 0 0 0 0 0 0 0 0 0 0 0 0 0 0 0 0 0 0 0 0 0 0 0 0 1 0 0 0 0 0 0 0 0 0 0 0 0 0 0 0 0 0 0 0 0 0 0 0 0 0 0 0 0 0 0 0 0 0 0 0 0 0 0 0 0 0 0 0 0 0 0 0 1 0 0 0 0 0 0 0 0 0 0 0 0 0 0 0 0 
0 0 0 0 0 0 0 1 1 0 0 0 0 0 0 0 0 0 0 0 0 0 0 0 0 0 0 0 0 0 0 0 0 0 0 0 0 0 0 0 0 0 0 0 0 0 0 0 0 0 0 0 0 0 0 0 0 0 0 0 0 0 0 0 0 0 0 0 0 0 0 0 0 0 0 0 0 0 0 0 0 0 0 0 0 0 0 0 0 0 0 0 
0 0 1 0 0 0 0 0 0 0 0 0 1 0 0 0 0 0 0 0 1 0 0 0 0 0 0 0 0 0 0 0 0 0 0 0 0 0 0 0 0 0 0 0 0 0 0 0 0 0 0 0 0 0 0 0 0 0 0 0 0 0 0 0 0 0 0 0 0 0 0 0 0 0 0 1 0 0 0 0 0 0 0 0 0 0 0 0 0 0 0 0 
0 0 1 0 0 0 0 0 0 0 0 0 0 1 0 0 0 0 0 0 1 0 0 0 0 0 0 1 0 0 0 0 0 0 0 0 0 0 0 0 0 0 0 0 0 0 0 0 0 0 0 0 0 0 0 0 0 0 0 0 0 0 0 0 0 0 0 0 0 0 0 0 0 0 0 0 0 0 0 0 0 0 0 0 0 0 0 0 0 0 0 0 
1 0 0 0 0 0 0 0 0 0 0 0 0 0 1 0 0 0 0 1 0 0 0 0 0 1 0 0 0 0 0 0 0 0 0 0 0 0 0 0 0 0 0 0 0 0 0 0 0 0 0 0 0 0 0 0 0 0 0 0 0 0 0 0 0 0 0 0 0 0 0 0 0 0 0 0 0 0 0 0 0 0 0 0 0 0 0 0 0 0 0 0 
1 0 0 0 0 0 1 0 0 0 0 0 0 0 0 0 0 0 0 1 0 0 0 0 0 0 1 0 0 0 0 0 0 0 0 0 0 0 0 0 0 0 0 0 0 0 0 0 0 0 0 0 0 0 0 0 0 0 0 0 0 0 0 0 0 0 0 0 0 0 0 0 0 0 0 0 0 0 0 0 0 0 0 0 0 0 0 0 0 0 0 0 
0 0 0 0 0 0 0 0 0 0 0 0 0 0 0 0 0 0 0 1 0 0 0 0 0 0 0 0 0 0 0 0 0 0 0 0 0 0 0 0 0 0 0 0 0 0 0 0 0 0 0 0 0 0 0 0 0 0 0 0 0 0 0 0 0 0 0 0 0 0 0 0 0 0 0 0 1 0 0 0 0 0 0 0 0 0 0 1 0 0 0 0 
0 0 0 0 0 0 0 0 0 0 0 0 0 0 0 0 0 0 0 0 0 0 0 0 0 0 0 0 0 0 0 0 0 0 0 0 0 0 0 0 0 0 0 0 0 0 0 0 0 0 0 0 0 0 0 0 0 0 0 0 0 0 0 0 0 0 0 0 0 0 0 0 0 0 0 0 0 0 0 0 0 0 0 0 1 0 0 1 0 0 0 0 
1 0 0 0 0 0 0 0 1 0 1 0 0 0 0 0 0 0 0 0 0 0 0 0 0 0 0 0 0 0 0 0 0 0 0 0 0 0 0 0 0 0 0 0 0 0 0 0 0 0 0 0 0 0 0 0 0 0 0 0 0 0 0 0 0 0 0 0 0 0 0 0 0 0 0 0 0 0 0 0 0 0 0 0 0 0 0 0 0 0 0 0 
1 0 0 0 0 0 0 0 0 0 0 0 1 0 0 1 0 0 0 0 0 0 0 0 0 0 0 0 0 0 0 0 0 0 0 0 0 0 0 0 0 0 0 0 0 0 0 0 0 0 0 0 0 0 0 0 0 0 0 0 0 0 0 0 0 0 0 0 0 0 0 0 0 0 0 0 0 0 0 0 0 0 0 0 0 0 0 0 0 0 0 0 
0 0 0 0 0 0 0 0 0 0 1 0 0 0 0 1 0 0 0 0 0 0 0 0 0 0 0 0 1 0 0 0 0 0 0 0 0 0 0 0 0 0 0 0 0 0 0 0 0 0 0 0 0 0 0 0 0 0 0 0 0 0 0 0 0 0 0 0 0 0 0 0 0 0 0 0 0 0 0 0 0 0 0 0 0 0 0 0 0 0 0 0 
0 0 0 0 0 0 0 0 0 0 0 0 0 0 0 0 0 0 0 1 0 0 0 0 1 0 0 0 0 0 0 0 0 0 0 0 0 0 0 0 0 0 0 0 0 0 0 0 0 0 0 0 0 0 0 0 0 0 0 0 0 0 0 0 0 0 0 0 0 0 0 0 0 0 0 0 0 0 0 0 0 0 0 0 0 0 0 0 1 0 0 0 
0 0 1 0 0 0 0 0 0 0 0 0 0 0 0 0 0 0 0 1 0 0 0 0 0 0 0 0 0 0 0 0 0 0 0 0 0 0 0 0 0 0 0 0 0 0 0 0 0 0 0 0 0 0 0 0 0 0 0 0 0 0 0 0 0 0 0 0 0 0 0 0 0 0 0 0 0 0 0 0 0 0 0 0 0 0 0 0 1 0 1 0 
0 1 1 0 0 0 0 0 0 0 0 0 0 0 0 0 0 0 0 1 0 0 0 0 0 0 0 0 0 0 0 0 0 0 0 0 0 0 0 0 0 0 0 0 0 0 0 0 0 0 0 0 0 0 0 0 0 0 0 0 0 0 0 0 0 0 0 0 0 0 0 0 0 0 0 0 0 0 0 0 0 0 0 0 0 0 0 0 0 0 1 0 
0 0 1 0 0 0 0 0 0 0 0 0 0 0 0 0 0 0 0 0 0 0 0 0 1 1 0 0 0 0 0 0 0 0 0 0 0 0 0 0 0 0 0 0 0 0 0 0 0 0 0 0 0 0 0 0 0 0 0 0 0 0 0 0 0 0 0 0 0 0 0 0 0 0 0 0 0 0 0 0 0 0 0 0 0 0 0 0 0 0 0 0 
1 0 0 0 0 0 0 1 1 0 0 0 0 0 0 0 0 0 0 0 0 0 0 0 0 0 0 0 0 0 0 0 0 0 0 0 0 0 0 0 0 0 0 0 0 0 0 0 0 0 0 0 0 0 0 0 0 0 0 0 0 0 0 0 0 0 0 0 0 0 0 0 0 0 0 0 0 0 0 0 0 0 0 0 0 0 0 0 0 0 0 0 
1 0 0 0 0 0 1 0 0 1 0 0 0 0 0 0 0 0 0 0 0 0 0 0 0 0 0 0 0 0 0 0 0 0 0 0 0 0 0 0 0 0 0 0 0 0 0 0 0 0 0 0 0 0 0 0 0 0 0 0 0 0 0 0 0 0 0 0 0 0 0 0 0 0 0 0 0 0 0 0 0 0 0 0 0 0 0 0 0 0 0 0 
0 0 0 0 0 0 0 0 1 0 0 0 1 0 0 0 0 0 0 0 0 0 0 0 0 0 0 0 0 0 0 0 0 0 0 0 0 0 0 0 0 0 0 0 0 0 0 0 0 0 0 0 0 0 0 0 0 0 0 0 0 0 0 0 0 0 0 0 0 0 0 0 0 0 0 0 0 0 0 0 0 0 0 0 0 0 0 0 0 0 0 0 
0 0 0 0 0 0 0 0 0 1 0 0 0 1 0 0 0 0 0 0 0 0 0 0 0 0 0 0 0 0 0 0 0 0 0 0 0 0 0 0 0 0 0 0 0 0 0 0 0 0 0 0 0 0 0 0 0 0 0 0 0 0 0 0 0 0 0 0 0 0 0 0 0 0 0 0 0 0 0 0 0 0 0 0 0 0 0 0 0 0 0 0 
1 0 0 0 0 0 0 0 0 0 0 0 0 0 0 0 0 0 0 0 0 0 0 0 0 1 0 0 0 0 0 0 0 0 0 0 0 0 0 0 0 0 0 0 0 0 0 0 0 0 0 0 0 0 0 0 0 0 0 0 0 0 0 0 0 0 0 0 0 0 0 0 0 0 0 0 0 0 0 0 0 0 0 0 0 0 0 0 0 0 1 0 
1 1 1 0 1 0 1 0 0 0 0 0 0 0 0 0 0 0 0 1 1 0 0 0 0 0 1 0 0 0 0 0 0 0 0 0 0 0 0 0 0 0 0 0 0 0 0 0 0 0 0 0 0 0 0 0 0 0 0 0 0 0 0 0 0 0 0 0 0 0 0 0 0 0 0 0 0 0 0 0 0 0 0 0 0 0 0 0 0 0 0 0 
0 0 1 0 0 0 1 0 0 0 0 0 0 0 0 0 0 0 0 0 0 0 0 0 0 0 0 1 0 0 0 0 0 0 0 0 0 0 0 0 0 0 0 0 0 0 0 0 0 0 0 0 0 0 0 0 0 0 0 0 0 0 0 0 0 0 0 0 0 0 0 0 0 0 0 0 0 0 0 0 0 0 0 0 0 0 0 0 0 0 0 0 
0 0 0 0 0 0 1 0 0 1 0 0 0 0 0 0 0 0 0 0 0 0 0 0 0 0 0 1 0 0 0 0 0 0 0 0 0 0 0 0 0 0 0 0 0 0 0 0 0 0 0 0 0 0 0 0 0 0 0 0 0 0 0 0 0 0 0 0 0 0 0 0 0 0 0 1 0 0 0 0 0 0 0 0 0 0 0 0 0 0 0 0 
0 0 0 0 0 0 0 0 1 0 0 0 0 0 0 0 0 0 0 0 0 0 0 0 0 0 0 0 1 0 0 0 0 1 0 0 0 0 0 0 0 0 0 0 0 0 0 0 0 0 0 0 0 0 0 0 0 0 0 0 0 0 0 0 0 0 0 0 0 0 0 0 0 0 0 0 0 0 0 0 0 0 0 0 0 0 0 0 0 0 0 0 
0 0 0 0 0 0 0 0 0 0 1 0 0 0 0 0 0 0 0 0 0 0 0 0 0 0 0 0 1 0 0 0 0 1 0 0 0 0 0 0 0 0 0 0 0 0 0 0 0 0 0 0 0 0 0 0 0 0 0 0 0 0 0 0 0 0 0 0 0 0 0 0 0 0 0 0 0 0 0 0 0 0 0 0 0 0 0 0 0 0 0 0 
0 0 0 0 0 1 0 0 0 0 0 0 0 0 1 0 0 0 0 0 0 0 0 0 0 0 0 0 0 0 0 0 0 0 0 0 0 0 0 0 0 0 0 0 0 0 0 0 0 0 0 0 0 0 0 0 0 0 0 0 0 0 0 0 0 0 0 0 0 0 0 0 0 0 0 0 0 0 0 0 0 0 0 0 0 0 0 0 0 0 0 0 
1 0 0 0 0 0 0 0 0 0 0 0 1 0 0 0 0 0 0 0 0 0 0 0 0 0 0 0 0 0 0 0 0 1 0 0 0 0 0 0 0 0 0 0 0 0 0 0 0 0 0 0 0 0 0 0 0 0 0 0 0 0 0 0 0 0 0 0 0 0 0 0 0 0 0 0 0 0 0 0 0 0 0 0 0 0 0 0 0 0 0 0 
0 0 0 0 0 0 0 0 0 0 0 0 0 0 0 0 0 0 0 0 0 0 0 0 0 0 0 0 0 0 0 0 0 0 0 0 0 0 0 0 0 0 0 0 0 0 0 0 1 0 1 0 0 0 0 0 0 0 0 0 0 0 0 0 0 0 0 0 0 0 1 0 0 0 0 0 0 0 0 0 0 0 0 0 0 0 0 0 0 0 0 0 
0 0 0 0 0 0 0 0 0 0 0 0 0 0 0 0 0 0 0 0 0 0 0 1 0 0 0 0 0 0 0 0 0 0 0 0 0 0 0 1 1 0 0 1 0 0 0 0 0 0 0 0 0 0 1 0 0 0 0 0 0 0 0 0 0 0 0 0 0 0 0 0 0 0 0 0 0 0 0 0 0 0 0 0 0 0 1 0 0 0 0 0 
0 0 0 0 0 0 0 0 0 0 0 0 0 0 0 0 0 0 0 0 0 0 0 0 0 0 0 0 0 0 0 0 0 0 0 0 0 0 0 0 1 1 0 0 0 0 0 0 0 0 0 0 0 0 0 0 0 0 0 0 0 0 0 0 0 0 0 0 0 0 0 0 0 0 0 0 0 0 0 0 1 0 0 0 0 0 0 0 0 0 0 0 
0 0 0 0 0 0 0 0 0 0 0 0 0 0 0 0 0 0 0 0 0 0 0 0 0 0 0 0 0 0 0 0 0 0 0 0 0 0 0 0 0 0 0 0 0 0 0 0 0 0 0 0 0 0 0 0 0 0 0 0 0 0 0 0 0 0 0 0 0 0 0 0 0 0 0 0 0 0 0 0 1 0 0 0 0 0 0 0 0 0 0 0 
0 0 0 0 0 0 0 0 0 0 0 0 0 0 0 0 0 0 0 0 0 0 0 0 0 0 0 0 0 0 0 0 0 0 0 0 0 0 0 0 0 1 0 0 0 0 0 0 0 0 0 0 0 0 0 0 0 0 0 0 0 0 0 0 0 0 0 0 0 0 0 0 0 0 0 0 0 0 0 0 0 0 0 0 0 0 0 0 0 0 0 0 
0 0 0 0 0 0 0 0 0 0 0 0 0 0 0 0 0 0 0 0 0 0 0 0 0 0 0 0 0 0 0 0 0 0 0 0 0 0 0 0 0 0 0 0 0 0 0 0 0 0 0 0 0 0 0 0 0 0 0 0 0 0 0 0 0 0 0 0 0 0 0 0 0 0 0 0 0 1 1 0 0 0 0 0 0 0 0 0 0 0 0 0 
0 0 0 0 0 0 0 0 0 0 0 0 0 0 0 0 0 0 0 0 0 0 0 0 0 0 0 0 0 0 0 0 0 0 0 0 0 0 0 0 0 0 0 1 0 0 0 0 0 0 0 0 0 0 0 0 0 0 0 0 0 0 0 0 0 0 0 0 0 0 0 0 0 0 0 0 0 0 0 0 0 0 0 0 0 0 0 0 0 0 0 0 
0 0 0 0 0 0 0 0 0 0 0 0 0 0 0 0 0 0 0 0 0 0 0 0 0 0 0 0 0 0 0 0 0 0 1 0 0 0 0 1 0 0 0 0 0 1 1 0 0 0 0 0 0 0 0 0 0 0 0 0 0 0 0 0 0 0 0 0 0 0 0 0 0 0 0 0 0 0 0 0 0 0 0 0 0 0 0 0 0 0 0 0 
0 0 0 0 0 0 0 0 0 0 0 0 0 0 0 0 0 0 0 0 0 0 0 0 0 0 0 0 0 0 0 0 0 0 1 0 0 0 0 0 0 0 0 0 0 0 0 0 0 0 0 0 0 0 0 0 0 0 0 0 0 0 0 0 0 0 0 0 0 0 0 0 0 0 0 0 0 0 0 0 0 0 0 0 0 0 0 0 0 0 0 0 
0 0 0 0 0 0 0 0 0 0 0 0 0 0 0 0 0 0 0 0 0 0 0 0 0 0 0 0 0 0 0 0 0 0 0 0 0 0 0 0 0 0 0 0 0 0 0 0 0 0 0 0 0 0 0 1 0 0 0 0 0 0 0 0 0 0 0 0 0 0 0 0 0 0 0 0 0 0 0 0 0 0 0 0 0 0 0 0 0 0 0 0 
0 0 0 0 0 0 0 0 0 0 0 0 0 0 0 0 0 0 0 0 0 0 0 0 0 0 0 0 0 0 0 0 0 0 0 0 0 0 0 0 0 0 0 0 0 0 0 0 0 0 0 0 0 0 0 0 0 0 0 0 0 0 0 0 0 0 0 0 0 0 0 0 0 0 0 0 0 0 0 0 0 0 0 0 0 0 1 0 0 0 0 0 
0 0 0 0 0 0 0 0 0 0 0 0 0 0 0 0 0 0 0 0 1 0 0 0 0 0 0 0 0 0 0 0 0 0 0 0 0 0 0 0 0 0 0 0 0 0 0 0 0 0 0 0 0 0 0 0 0 0 0 0 0 0 0 0 0 0 0 0 0 0 0 0 0 0 0 0 1 0 0 0 0 0 0 0 0 1 0 1 0 0 0 0 
0 0 0 0 0 0 0 0 0 0 0 0 0 0 0 0 0 0 0 0 0 0 0 0 0 0 0 0 0 0 0 0 0 0 0 0 0 0 0 0 1 0 0 1 0 0 0 0 0 0 0 0 0 0 1 1 0 0 0 0 0 0 0 0 0 0 0 0 0 0 0 0 0 0 0 0 0 0 0 0 0 0 0 0 0 0 1 0 0 0 0 0 
0 0 0 0 0 0 0 0 0 0 0 0 0 0 0 0 0 0 0 0 0 0 0 1 0 0 0 0 0 0 0 0 0 0 0 0 0 1 0 0 0 0 0 0 0 0 0 0 0 0 0 0 0 0 0 0 0 0 0 1 1 0 0 0 0 0 0 0 0 0 0 0 0 0 0 0 0 0 0 0 0 0 0 0 0 0 0 0 0 0 0 0 
0 0 0 0 0 0 0 0 0 0 0 0 0 0 0 0 0 0 0 0 0 0 0 0 0 0 0 0 0 0 0 0 0 0 0 0 0 1 0 0 0 0 0 0 0 0 0 0 0 0 0 0 0 0 0 0 0 0 0 0 0 0 0 0 0 0 0 0 0 0 0 0 0 0 0 0 0 0 0 0 0 0 0 0 0 0 0 0 0 0 0 0 
0 0 0 0 0 0 0 0 0 0 0 0 0 0 0 0 0 0 0 0 0 0 0 0 0 0 0 0 0 0 0 0 0 0 0 0 0 0 0 0 1 0 0 0 0 0 0 0 0 0 0 0 0 0 0 0 0 0 0 0 1 1 0 0 0 0 0 1 0 0 0 0 0 0 0 0 0 0 0 0 0 0 0 0 0 0 0 0 0 0 0 0 
0 0 0 0 0 0 0 0 0 0 0 0 0 0 0 0 0 0 0 0 0 0 0 0 0 0 0 0 0 0 0 0 0 0 0 0 0 0 0 0 0 0 0 0 1 0 0 0 0 0 0 0 0 0 0 0 0 0 0 0 0 0 0 0 0 0 0 0 0 0 0 0 0 0 0 0 0 0 0 0 0 0 0 0 0 0 0 0 0 0 0 0 
Glc_up
CO2
0
The Distance Matrix
ATP AccoA CO2 CellWall DAG DHAP DHAP_p F16bP F6P F6P_p Fru Fru_v G6P G6P_p GAP Glc Glc_in Glc_up Glc_v NADH NADPH NRJ1 NRJ1b NRJ2_Vkgdh_Vsdh_Vfum OAA PEP PEP_p Ru5P_p Suc Suc_v Tg6p Tpep Ttp UDPG Vac_c Vac_f Vac_g Vac_m Vac_s Vaco_Vidh Vala Vala_out Vald Vasp_out_Vasp Vat_Vss_Vpglm_p Vcl Vcs Vcw Vepi_p Vfbp Vg6pdh_Vepi_Tx5p Vg6pdh_p Vgapdh_Vpgk_Vpgm_Veno Vgapdh_p Vgdh Vgl_out Vhk1 Vhk2 Vinv Vmdh Vme Vpdh Vpepc Vpfk Vpfk_p_Vald_p_Vtpi_p Vpgi Vpgi_p Vpk Vpk_p_Vpdh_p_VFAx_Vdag_Vglyc3P Vrbco Vriso_p_Vtkx_p_Vtald_p Vsps_Vspace Vsusy Vtpi Vut_NRJ3_Vpglm X5P_p aKG ala ala_in ala_out ala_up asp_out cit cit_v gl_out gln_in gln_up_Vgs glu mal mal_v pyr starch 
0 2 2 4 2 4 2 2 2 2 2 4 2 2 2 2 4 3 4 2 2 1 1 1 2 2 2 4 4 6 3 3 3 2 3 3 3 3 5 3 3 5 3 3 1 1 3 3 5 3 3 3 1 1 3 5 1 1 3 3 3 3 3 1 1 3 3 1 1 3 3 3 3 3 1 4 2 4 6 6 5 4 2 4 6 4 3 4 2 4 2 2 
2 0 2 6 2 4 2 4 4 4 4 6 4 4 4 4 6 5 6 2 2 3 3 3 2 4 2 4 6 8 5 3 3 4 3 5 5 5 7 3 3 5 5 3 3 1 1 5 5 5 3 3 3 3 3 5 3 3 5 3 3 1 3 3 3 5 5 3 1 3 3 5 5 5 3 4 4 4 6 6 5 4 2 4 6 4 3 4 4 6 2 4 
2 2 0 6 2 4 2 4 4 4 4 6 2 2 4 4 6 5 6 2 2 3 3 1 2 2 2 2 6 8 3 3 3 4 3 5 5 3 7 1 3 5 5 3 3 3 3 5 3 5 1 1 3 3 3 5 3 3 5 3 1 1 1 3 3 3 3 3 1 1 3 5 5 5 3 2 2 4 6 6 5 4 2 4 6 4 3 4 2 4 2 4 
4 6 6 0 6 8 6 6 4 6 4 6 4 6 6 6 8 7 8 6 6 5 5 5 6 6 6 8 4 6 5 7 7 2 7 5 7 7 5 7 7 9 7 7 5 5 7 1 7 5 5 7 5 5 7 9 5 5 5 7 7 7 7 5 5 5 7 5 5 7 7 3 3 7 3 6 6 8 10 10 9 8 6 8 10 8 7 8 6 8 6 6 
2 2 2 6 0 4 2 4 4 4 4 6 4 4 4 4 6 5 6 2 2 3 3 3 4 4 2 4 6 8 5 3 3 4 5 5 5 5 7 3 5 7 5 5 3 3 3 5 5 5 3 3 3 3 3 5 3 3 5 3 3 3 3 3 3 5 5 3 1 3 3 5 5 5 3 4 4 6 8 8 7 6 4 6 6 4 3 4 4 6 4 4 
4 4 4 8 4 0 2 2 4 4 6 8 6 6 2 6 8 7 8 4 4 5 5 5 6 4 4 4 6 8 7 5 1 6 7 7 7 7 7 5 7 9 1 7 5 5 5 7 5 3 5 5 3 3 5 7 5 5 7 5 5 5 5 3 3 5 5 5 3 3 3 5 7 1 5 4 6 8 10 10 9 8 6 8 8 6 5 6 6 8 6 6 
2 2 2 6 2 2 0 4 4 2 4 6 4 4 4 4 6 5 6 2 2 3 3 3 4 4 2 2 6 8 5 3 1 4 5 5 5 5 7 3 5 7 3 5 3 3 3 5 3 5 3 3 3 1 3 5 3 3 5 3 3 3 3 3 1 5 3 3 1 1 1 5 5 3 3 2 4 6 8 8 7 6 4 6 6 4 3 4 4 6 4 4 
2 4 4 6 4 2 4 0 2 4 4 6 4 4 2 4 6 5 6 4 4 3 3 3 4 4 4 6 4 6 5 5 3 4 5 5 5 5 5 5 5 7 1 5 3 3 5 5 7 1 5 5 3 3 5 7 3 3 5 5 5 5 5 1 3 3 5 3 3 5 5 3 5 3 3 6 4 6 8 8 7 6 4 6 8 6 5 6 4 6 4 4 
2 4 4 4 4 4 4 2 0 4 2 4 2 4 4 4 6 5 6 4 4 3 3 3 4 4 4 6 2 4 3 5 5 2 5 3 5 5 3 5 5 7 3 5 3 3 5 3 5 1 3 5 3 3 5 7 1 3 3 5 5 5 5 1 3 1 5 3 3 5 5 1 3 5 3 4 4 6 8 8 7 6 4 6 8 6 5 6 4 6 4 4 
2 4 4 6 4 4 2 4 4 0 4 6 4 2 4 4 6 5 6 4 4 3 3 3 4 4 4 2 6 8 3 5 3 4 5 5 5 5 7 5 5 7 5 5 3 3 5 5 3 5 3 3 3 3 5 7 3 3 5 5 5 5 5 3 1 5 1 3 3 3 1 5 5 5 3 2 4 6 8 8 7 6 4 6 8 6 5 6 4 6 4 4 
2 4 4 4 4 6 4 4 2 4 0 2 4 4 4 2 4 3 4 4 4 3 3 3 4 4 4 6 2 4 5 5 5 2 5 1 3 5 3 5 5 7 5 5 3 3 5 3 7 3 5 5 3 3 5 7 1 3 1 5 5 5 5 3 3 3 5 3 3 5 5 3 1 5 3 6 4 6 8 8 7 6 4 6 8 6 5 6 4 6 4 4 
4 6 6 6 6 8 6 6 4 6 2 0 6 6 6 4 6 5 6 6 6 5 5 5 6 6 6 8 4 6 7 7 7 4 7 1 5 7 5 7 7 9 7 7 5 5 7 5 9 5 7 7 5 5 7 9 3 5 3 7 7 7 7 5 5 5 7 5 5 7 7 5 3 7 5 8 6 8 10 10 9 8 6 8 10 8 7 8 6 8 6 6 
2 4 2 4 4 6 4 4 2 4 4 6 0 2 4 2 4 3 4 4 2 3 3 3 4 4 4 4 4 6 1 5 5 2 5 5 3 5 5 3 5 7 5 5 3 3 5 3 3 3 1 3 3 3 5 5 3 1 3 5 3 3 3 3 3 1 3 3 3 3 3 3 3 5 1 2 4 6 8 8 7 6 4 6 6 4 3 4 4 6 4 4 
2 4 2 6 4 6 4 4 4 2 4 6 2 0 4 4 6 5 6 4 2 3 3 3 4 4 4 2 6 8 1 5 5 4 5 5 5 5 7 3 5 7 5 5 1 3 5 5 3 5 3 1 3 3 5 5 3 3 5 5 3 3 3 3 3 3 1 3 3 3 3 5 5 5 3 4 4 6 8 8 7 6 4 6 6 4 3 4 4 6 4 2 
2 4 4 6 4 2 4 2 4 4 4 6 4 4 0 4 6 5 6 2 4 3 3 3 4 2 4 6 6 8 5 3 3 4 5 5 5 5 7 3 5 7 1 5 3 3 5 5 7 3 5 5 1 3 3 5 3 3 5 3 3 3 3 3 3 5 5 3 3 5 5 5 5 1 3 6 4 6 8 8 7 6 4 6 6 6 5 4 4 6 4 4 
2 4 4 6 4 6 4 4 4 4 2 4 2 4 4 0 2 1 2 4 4 3 3 3 4 4 4 6 2 4 3 5 5 4 5 3 1 5 3 5 5 7 5 5 3 3 5 5 5 5 3 5 3 3 5 7 3 1 1 5 5 5 5 3 3 3 5 3 3 5 5 3 3 5 3 4 4 6 8 8 7 6 4 6 8 6 5 6 4 6 4 4 
4 6 6 8 6 8 6 6 6 6 4 6 4 6 6 2 0 1 4 6 6 5 5 5 6 6 6 8 4 6 5 7 7 6 7 5 3 7 5 7 7 9 7 7 5 5 7 7 7 7 5 7 5 5 7 9 5 3 3 7 7 7 7 5 5 5 7 5 5 7 7 5 5 7 5 6 6 8 10 10 9 8 6 8 10 8 7 8 6 8 6 6 
3 5 5 7 5 7 5 5 5 5 3 5 3 5 5 1 1 0 3 5 5 4 4 4 5 5 5 7 3 5 4 6 6 5 6 4 2 6 4 6 6 8 6 6 4 4 6 6 6 6 4 6 4 4 6 8 4 2 2 6 6 6 6 4 4 4 6 4 4 6 6 4 4 6 4 5 5 7 9 9 8 7 5 7 9 7 6 7 5 7 5 5 
4 6 6 8 6 8 6 6 6 6 4 6 4 6 6 2 4 3 0 6 6 5 5 5 6 6 6 8 4 6 5 7 7 6 7 5 1 7 5 7 7 9 7 7 5 5 7 7 7 7 5 7 5 5 7 9 5 3 3 7 7 7 7 5 5 5 7 5 5 7 7 5 5 7 5 6 6 8 10 10 9 8 6 8 10 8 7 8 6 8 6 6 
2 2 2 6 2 4 2 4 4 4 4 6 4 4 2 4 6 5 6 0 2 1 3 1 2 2 2 4 6 8 5 3 3 4 3 5 5 3 7 1 3 5 3 3 3 3 3 5 5 5 3 3 1 1 1 3 3 3 5 1 1 1 3 3 3 5 5 3 1 3 3 5 5 3 3 4 2 4 6 6 5 4 2 4 4 4 3 2 2 4 2 4 
2 2 2 6 2 4 2 4 4 4 4 6 2 2 4 4 6 5 6 2 0 3 1 3 4 4 2 2 6 8 3 3 3 4 5 5 5 5 7 3 3 5 5 3 3 3 3 5 3 5 1 1 3 3 3 3 3 3 5 3 3 3 3 3 3 3 3 3 1 3 3 5 5 5 3 2 2 4 6 6 5 4 4 6 4 2 1 2 4 6 4 4 
1 3 3 5 3 5 3 3 3 3 3 5 3 3 3 3 5 4 5 1 3 0 2 2 3 3 3 5 5 7 4 4 4 3 4 4 4 4 6 2 4 6 4 4 2 2 4 4 6 4 4 4 2 2 2 4 2 2 4 2 2 2 4 2 2 4 4 2 2 4 4 4 4 4 2 5 3 5 7 7 6 5 3 5 5 5 4 3 3 5 3 3 
1 3 3 5 3 5 3 3 3 3 3 5 3 3 3 3 5 4 5 3 1 2 0 2 3 3 3 3 5 7 4 4 4 3 4 4 4 4 6 4 4 6 4 4 2 2 4 4 4 4 2 2 2 2 4 4 2 2 4 4 4 4 4 2 2 4 4 2 2 4 4 4 4 4 2 3 3 5 7 7 6 5 3 5 5 3 2 3 3 5 3 3 
1 3 1 5 3 5 3 3 3 3 3 5 3 3 3 3 5 4 5 1 3 2 2 0 3 3 3 3 5 7 4 4 4 3 4 4 4 2 6 2 2 4 4 2 2 2 4 4 4 4 2 2 2 2 2 4 2 2 4 2 2 2 2 2 2 4 4 2 2 2 4 4 4 4 2 3 1 3 5 5 4 3 3 5 5 3 2 3 1 3 3 3 
2 2 2 6 4 6 4 4 4 4 4 6 4 4 4 4 6 5 6 2 4 3 3 3 0 2 4 4 6 8 5 3 5 4 3 5 5 3 7 3 3 5 5 1 3 1 1 5 5 5 3 3 3 3 3 3 3 3 5 1 3 3 1 3 3 5 5 3 3 3 5 5 5 5 3 4 2 4 6 6 5 2 2 4 4 4 3 2 2 4 4 4 
2 4 2 6 4 4 4 4 4 4 4 6 4 4 2 4 6 5 6 2 4 3 3 3 2 0 2 4 6 8 5 1 5 4 5 5 5 5 7 3 3 5 3 3 3 3 3 5 5 5 3 3 1 3 3 5 3 3 5 3 3 3 1 3 3 5 5 1 3 3 5 5 5 3 3 4 4 4 6 6 5 4 4 6 6 6 5 4 4 6 2 4 
2 2 2 6 2 4 2 4 4 4 4 6 4 4 4 4 6 5 6 2 2 3 3 3 4 2 0 4 6 8 5 1 3 4 5 5 5 5 7 3 5 7 5 5 3 3 3 5 5 5 3 3 3 1 3 5 3 3 5 3 3 3 3 3 3 5 5 3 1 3 3 5 5 5 3 4 4 6 8 8 7 6 4 6 6 4 3 4 4 6 4 4 
4 4 2 8 4 4 2 6 6 2 6 8 4 2 6 6 8 7 8 4 2 5 3 3 4 4 4 0 8 10 3 5 3 6 5 7 7 5 9 3 5 7 5 5 3 5 5 7 1 7 3 1 5 3 5 5 5 5 7 5 3 3 3 5 3 5 3 5 3 1 1 7 7 5 5 2 4 6 8 8 7 6 4 6 6 4 3 4 4 6 4 4 
4 6 6 4 6 6 6 4 2 6 2 4 4 6 6 2 4 3 4 6 6 5 5 5 6 6 6 8 0 2 5 7 7 2 7 3 3 7 1 7 7 9 5 7 5 5 7 3 7 3 5 7 5 5 7 9 3 3 1 7 7 7 7 3 5 3 7 5 5 7 7 1 1 7 3 6 6 8 10 10 9 8 6 8 10 8 7 8 6 8 6 6 
6 8 8 6 8 8 8 6 4 8 4 6 6 8 8 4 6 5 6 8 8 7 7 7 8 8 8 10 2 0 7 9 9 4 9 5 5 9 1 9 9 11 7 9 7 7 9 5 9 5 7 9 7 7 9 11 5 5 3 9 9 9 9 5 7 5 9 7 7 9 9 3 3 9 5 8 8 10 12 12 11 10 8 10 12 10 9 10 8 10 8 8 
3 5 3 5 5 7 5 5 3 3 5 7 1 1 5 3 5 4 5 5 3 4 4 4 5 5 5 3 5 7 0 6 6 3 6 6 4 6 6 4 6 8 6 6 2 4 6 4 4 4 2 2 4 4 6 6 4 2 4 6 4 4 4 4 4 2 2 4 4 4 4 4 4 6 2 3 5 7 9 9 8 7 5 7 7 5 4 5 5 7 5 3 
3 3 3 7 3 5 3 5 5 5 5 7 5 5 3 5 7 6 7 3 3 4 4 4 3 1 1 5 7 9 6 0 4 5 6 6 6 6 8 4 4 6 4 4 4 4 4 6 6 6 4 4 2 2 4 6 4 4 6 4 4 4 2 4 4 6 6 2 2 4 4 6 6 4 4 5 5 5 7 7 6 5 5 7 7 5 4 5 5 7 3 5 
3 3 3 7 3 1 1 3 5 3 5 7 5 5 3 5 7 6 7 3 3 4 4 4 5 5 3 3 7 9 6 4 0 5 6 6 6 6 8 4 6 8 2 6 4 4 4 6 4 4 4 4 4 2 4 6 4 4 6 4 4 4 4 4 2 6 4 4 2 2 2 6 6 2 4 3 5 7 9 9 8 7 5 7 7 5 4 5 5 7 5 5 
2 4 4 2 4 6 4 4 2 4 2 4 2 4 4 4 6 5 6 4 4 3 3 3 4 4 4 6 2 4 3 5 5 0 5 3 5 5 3 5 5 7 5 5 3 3 5 1 5 3 3 5 3 3 5 7 3 3 3 5 5 5 5 3 3 3 5 3 3 5 5 1 1 5 1 4 4 6 8 8 7 6 4 6 8 6 5 6 4 6 4 4 
3 3 3 7 5 7 5 5 5 5 5 7 5 5 5 5 7 6 7 3 5 4 4 4 3 5 5 5 7 9 6 6 6 5 0 6 6 6 8 2 4 6 6 4 4 2 2 6 6 6 4 4 4 4 4 6 4 4 6 4 4 4 4 4 4 6 6 4 4 4 6 6 6 6 4 5 3 5 7 7 6 5 1 1 7 5 4 5 5 7 5 5 
3 5 5 5 5 7 5 5 3 5 1 1 5 5 5 3 5 4 5 5 5 4 4 4 5 5 5 7 3 5 6 6 6 3 6 0 4 6 4 6 6 8 6 6 4 4 6 4 8 4 6 6 4 4 6 8 2 4 2 6 6 6 6 4 4 4 6 4 4 6 6 4 2 6 4 7 5 7 9 9 8 7 5 7 9 7 6 7 5 7 5 5 
3 5 5 7 5 7 5 5 5 5 3 5 3 5 5 1 3 2 1 5 5 4 4 4 5 5 5 7 3 5 4 6 6 5 6 4 0 6 4 6 6 8 6 6 4 4 6 6 6 6 4 6 4 4 6 8 4 2 2 6 6 6 6 4 4 4 6 4 4 6 6 4 4 6 4 5 5 7 9 9 8 7 5 7 9 7 6 7 5 7 5 5 
3 5 3 7 5 7 5 5 5 5 5 7 5 5 5 5 7 6 7 3 5 4 4 2 3 5 5 5 7 9 6 6 6 5 6 6 6 0 8 4 4 6 6 4 4 4 4 6 6 6 4 4 4 4 4 6 4 4 6 2 2 4 4 4 4 6 6 4 4 4 6 6 6 6 4 5 3 5 7 7 6 5 5 7 7 5 4 5 1 1 3 5 
5 7 7 5 7 7 7 5 3 7 3 5 5 7 7 3 5 4 5 7 7 6 6 6 7 7 7 9 1 1 6 8 8 3 8 4 4 8 0 8 8 10 6 8 6 6 8 4 8 4 6 8 6 6 8 10 4 4 2 8 8 8 8 4 6 4 8 6 6 8 8 2 2 8 4 7 7 9 11 11 10 9 7 9 11 9 8 9 7 9 7 7 
3 3 1 7 3 5 3 5 5 5 5 7 3 3 3 5 7 6 7 1 3 2 4 2 3 3 3 3 7 9 4 4 4 5 2 6 6 4 8 0 2 4 4 2 4 2 2 6 4 6 2 2 2 2 2 4 4 4 6 2 2 2 2 4 4 4 4 4 2 2 4 6 6 4 4 3 1 3 5 5 4 3 1 3 5 3 2 3 3 5 3 5 
3 3 3 7 5 7 5 5 5 5 5 7 5 5 5 5 7 6 7 3 3 4 4 2 3 3 5 5 7 9 6 4 6 5 4 6 6 4 8 2 0 2 6 2 4 4 4 6 6 6 4 4 4 4 2 2 4 4 6 4 2 2 4 4 4 6 6 2 4 4 6 6 6 6 4 5 1 1 3 3 2 3 3 5 3 3 2 1 3 5 1 5 
5 5 5 9 7 9 7 7 7 7 7 9 7 7 7 7 9 8 9 5 5 6 6 4 5 5 7 7 9 11 8 6 8 7 6 8 8 6 10 4 2 0 8 4 6 6 6 8 8 8 6 6 6 6 4 4 6 6 8 6 4 4 6 6 6 8 8 4 6 6 8 8 8 8 6 7 3 1 3 1 2 5 5 7 5 5 4 3 5 7 3 7 
3 5 5 7 5 1 3 1 3 5 5 7 5 5 1 5 7 6 7 3 5 4 4 4 5 3 5 5 5 7 6 4 2 5 6 6 6 6 6 4 6 8 0 6 4 4 6 6 6 2 6 6 2 4 4 6 4 4 6 4 4 4 4 2 4 4 6 4 4 4 4 4 6 2 4 5 5 7 9 9 8 7 5 7 7 7 6 5 5 7 5 5 
3 3 3 7 5 7 5 5 5 5 5 7 5 5 5 5 7 6 7 3 3 4 4 2 1 3 5 5 7 9 6 4 6 5 4 6 6 4 8 2 2 4 6 0 4 2 2 6 6 6 4 4 4 4 2 2 4 4 6 2 4 4 2 4 4 6 6 4 4 4 6 6 6 6 4 5 1 3 5 5 4 1 3 5 3 3 2 1 3 5 3 5 
1 3 3 5 3 5 3 3 3 3 3 5 3 1 3 3 5 4 5 3 3 2 2 2 3 3 3 3 5 7 2 4 4 3 4 4 4 4 6 4 4 6 4 4 0 2 4 4 4 4 4 2 2 2 4 6 2 2 4 4 4 4 4 2 2 4 2 2 2 4 4 4 4 4 2 5 3 5 7 7 6 5 3 5 7 5 4 5 3 5 3 1 
1 1 3 5 3 5 3 3 3 3 3 5 3 3 3 3 5 4 5 3 3 2 2 2 1 3 3 5 5 7 4 4 4 3 2 4 4 4 6 2 4 6 4 2 2 0 2 4 6 4 4 4 2 2 4 4 2 2 4 2 4 2 2 2 2 4 4 2 2 4 4 4 4 4 2 5 3 5 7 7 6 3 1 3 5 5 4 3 3 5 3 3 
3 1 3 7 3 5 3 5 5 5 5 7 5 5 5 5 7 6 7 3 3 4 4 4 1 3 3 5 7 9 6 4 4 5 2 6 6 4 8 2 4 6 6 2 4 2 0 6 6 6 4 4 4 4 4 4 4 4 6 2 4 2 2 4 4 6 6 4 2 4 4 6 6 6 4 5 3 5 7 7 6 3 1 3 5 5 4 3 3 5 3 5 
3 5 5 1 5 7 5 5 3 5 3 5 3 5 5 5 7 6 7 5 5 4 4 4 5 5 5 7 3 5 4 6 6 1 6 4 6 6 4 6 6 8 6 6 4 4 6 0 6 4 4 6 4 4 6 8 4 4 4 6 6 6 6 4 4 4 6 4 4 6 6 2 2 6 2 5 5 7 9 9 8 7 5 7 9 7 6 7 5 7 5 5 
5 5 3 7 5 5 3 7 5 3 7 9 3 3 7 5 7 6 7 5 3 6 4 4 5 5 5 1 7 9 4 6 4 5 6 8 6 6 8 4 6 8 6 6 4 6 6 6 0 6 2 2 6 4 6 6 6 4 6 6 4 4 4 6 4 4 4 6 4 2 2 6 6 6 4 1 5 7 9 9 8 7 5 7 7 5 4 5 5 7 5 5 
3 5 5 5 5 3 5 1 1 5 3 5 3 5 3 5 7 6 7 5 5 4 4 4 5 5 5 7 3 5 4 6 4 3 6 4 6 6 4 6 6 8 2 6 4 4 6 4 6 0 4 6 4 4 6 8 2 4 4 6 6 6 6 2 4 2 6 4 4 6 6 2 4 4 4 5 5 7 9 9 8 7 5 7 9 7 6 7 5 7 5 5 
3 3 1 5 3 5 3 5 3 3 5 7 1 3 5 3 5 4 5 3 1 4 2 2 3 3 3 3 5 7 2 4 4 3 4 6 4 4 6 2 4 6 6 4 4 4 4 4 2 4 0 2 4 4 4 4 4 2 4 4 2 2 2 4 4 2 4 4 2 2 2 4 4 6 2 1 3 5 7 7 6 5 3 5 5 3 2 3 3 5 3 5 
3 3 1 7 3 5 3 5 5 3 5 7 3 1 5 5 7 6 7 3 1 4 2 2 3 3 3 1 7 9 2 4 4 5 4 6 6 4 8 2 4 6 6 4 2 4 4 6 2 6 2 0 4 4 4 4 4 4 6 4 2 2 2 4 4 4 2 4 2 2 2 6 6 6 4 3 3 5 7 7 6 5 3 5 5 3 2 3 3 5 3 3 
1 3 3 5 3 3 3 3 3 3 3 5 3 3 1 3 5 4 5 1 3 2 2 2 3 1 3 5 5 7 4 2 4 3 4 4 4 4 6 2 4 6 2 4 2 2 4 4 6 4 4 4 0 2 2 4 2 2 4 2 2 2 2 2 2 4 4 2 2 4 4 4 4 2 2 5 3 5 7 7 6 5 3 5 5 5 4 3 3 5 3 3 
1 3 3 5 3 3 1 3 3 3 3 5 3 3 3 3 5 4 5 1 3 2 2 2 3 3 1 3 5 7 4 2 2 3 4 4 4 4 6 2 4 6 4 4 2 2 4 4 4 4 4 4 2 0 2 4 2 2 4 2 2 2 4 2 2 4 4 2 2 2 2 4 4 4 2 3 3 5 7 7 6 5 3 5 5 5 4 3 3 5 3 3 
3 3 3 7 3 5 3 5 5 5 5 7 5 5 3 5 7 6 7 1 3 2 4 2 3 3 3 5 7 9 6 4 4 5 4 6 6 4 8 2 2 4 4 2 4 4 4 6 6 6 4 4 2 2 0 2 4 4 6 2 2 2 4 4 4 6 6 4 2 4 4 6 6 4 4 5 1 3 5 5 4 3 3 5 3 3 2 1 3 5 3 5 
5 5 5 9 5 7 5 7 7 7 7 9 5 5 5 7 9 8 9 3 3 4 4 4 3 5 5 5 9 11 6 6 6 7 6 8 8 6 10 4 2 4 6 2 6 4 4 8 6 8 4 4 4 4 2 0 6 6 8 4 4 4 4 6 6 6 6 4 4 6 6 8 8 6 6 5 3 3 5 5 4 3 5 7 1 3 2 1 5 7 3 7 
1 3 3 5 3 5 3 3 1 3 1 3 3 3 3 3 5 4 5 3 3 2 2 2 3 3 3 5 3 5 4 4 4 3 4 2 4 4 4 4 4 6 4 4 2 2 4 4 6 2 4 4 2 2 4 6 0 2 2 4 4 4 4 2 2 2 4 2 2 4 4 2 2 4 2 5 3 5 7 7 6 5 3 5 7 5 4 5 3 5 3 3 
1 3 3 5 3 5 3 3 3 3 3 5 1 3 3 1 3 2 3 3 3 2 2 2 3 3 3 5 3 5 2 4 4 3 4 4 2 4 4 4 4 6 4 4 2 2 4 4 4 4 2 4 2 2 4 6 2 0 2 4 4 4 4 2 2 2 4 2 2 4 4 4 4 4 2 3 3 5 7 7 6 5 3 5 7 5 4 5 3 5 3 3 
3 5 5 5 5 7 5 5 3 5 1 3 3 5 5 1 3 2 3 5 5 4 4 4 5 5 5 7 1 3 4 6 6 3 6 2 2 6 2 6 6 8 6 6 4 4 6 4 6 4 4 6 4 4 6 8 2 2 0 6 6 6 6 4 4 4 6 4 4 6 6 2 2 6 4 5 5 7 9 9 8 7 5 7 9 7 6 7 5 7 5 5 
3 3 3 7 3 5 3 5 5 5 5 7 5 5 3 5 7 6 7 1 3 2 4 2 1 3 3 5 7 9 6 4 4 5 4 6 6 2 8 2 4 6 4 2 4 2 2 6 6 6 4 4 2 2 2 4 4 4 6 0 2 2 2 4 4 6 6 4 2 4 4 6 6 4 4 5 3 5 7 7 6 3 3 5 5 5 4 3 1 3 3 5 
3 3 1 7 3 5 3 5 5 5 5 7 3 3 3 5 7 6 7 1 3 2 4 2 3 3 3 3 7 9 4 4 4 5 4 6 6 2 8 2 2 4 4 4 4 4 4 6 4 6 2 2 2 2 2 4 4 4 6 2 0 2 2 4 4 4 4 2 2 2 4 6 6 4 4 3 3 3 5 5 4 5 3 5 5 5 4 3 1 3 1 5 
3 1 1 7 3 5 3 5 5 5 5 7 3 3 3 5 7 6 7 1 3 2 4 2 3 3 3 3 7 9 4 4 4 5 4 6 6 4 8 2 2 4 4 4 4 2 2 6 4 6 2 2 2 2 2 4 4 4 6 2 2 0 2 4 4 4 4 2 2 2 4 6 6 4 4 3 3 3 5 5 4 5 3 5 5 5 4 3 3 5 1 5 
3 3 1 7 3 5 3 5 5 5 5 7 3 3 3 5 7 6 7 3 3 4 4 2 1 1 3 3 7 9 4 2 4 5 4 6 6 4 8 2 4 6 4 2 4 2 2 6 4 6 2 2 2 4 4 4 4 4 6 2 2 2 0 4 4 4 4 2 2 2 4 6 6 4 4 3 3 5 7 7 6 3 3 5 5 5 4 3 3 5 3 5 
1 3 3 5 3 3 3 1 1 3 3 5 3 3 3 3 5 4 5 3 3 2 2 2 3 3 3 5 3 5 4 4 4 3 4 4 4 4 4 4 4 6 2 4 2 2 4 4 6 2 4 4 2 2 4 6 2 2 4 4 4 4 4 0 2 2 4 2 2 4 4 2 4 4 2 5 3 5 7 7 6 5 3 5 7 5 4 5 3 5 3 3 
1 3 3 5 3 3 1 3 3 1 3 5 3 3 3 3 5 4 5 3 3 2 2 2 3 3 3 3 5 7 4 4 2 3 4 4 4 4 6 4 4 6 4 4 2 2 4 4 4 4 4 4 2 2 4 6 2 2 4 4 4 4 4 2 0 4 2 2 2 2 2 4 4 4 2 3 3 5 7 7 6 5 3 5 7 5 4 5 3 5 3 3 
3 5 3 5 5 5 5 3 1 5 3 5 1 3 5 3 5 4 5 5 3 4 4 4 5 5 5 5 3 5 2 6 6 3 6 4 4 6 4 4 6 8 4 6 4 4 6 4 4 2 2 4 4 4 6 6 2 2 4 6 4 4 4 2 4 0 4 4 4 4 4 2 4 6 2 3 5 7 9 9 8 7 5 7 7 5 4 5 5 7 5 5 
3 5 3 7 5 5 3 5 5 1 5 7 3 1 5 5 7 6 7 5 3 4 4 4 5 5 5 3 7 9 2 6 4 5 6 6 6 6 8 4 6 8 6 6 2 4 6 6 4 6 4 2 4 4 6 6 4 4 6 6 4 4 4 4 2 4 0 4 4 4 2 6 6 6 4 3 5 7 9 9 8 7 5 7 7 5 4 5 5 7 5 3 
1 3 3 5 3 5 3 3 3 3 3 5 3 3 3 3 5 4 5 3 3 2 2 2 3 1 3 5 5 7 4 2 4 3 4 4 4 4 6 4 2 4 4 4 2 2 4 4 6 4 4 4 2 2 4 4 2 2 4 4 2 2 2 2 2 4 4 0 2 4 4 4 4 4 2 5 3 3 5 5 4 5 3 5 5 5 4 3 3 5 1 3 
1 1 1 5 1 3 1 3 3 3 3 5 3 3 3 3 5 4 5 1 1 2 2 2 3 3 1 3 5 7 4 2 2 3 4 4 4 4 6 2 4 6 4 4 2 2 2 4 4 4 2 2 2 2 2 4 2 2 4 2 2 2 2 2 2 4 4 2 0 2 2 4 4 4 2 3 3 5 7 7 6 5 3 5 5 3 2 3 3 5 3 3 
3 3 1 7 3 3 1 5 5 3 5 7 3 3 5 5 7 6 7 3 3 4 4 2 3 3 3 1 7 9 4 4 2 5 4 6 6 4 8 2 4 6 4 4 4 4 4 6 2 6 2 2 4 2 4 6 4 4 6 4 2 2 2 4 2 4 4 4 2 0 2 6 6 4 4 3 3 5 7 7 6 5 3 5 7 5 4 5 3 5 3 5 
3 3 3 7 3 3 1 5 5 1 5 7 3 3 5 5 7 6 7 3 3 4 4 4 5 5 3 1 7 9 4 4 2 5 6 6 6 6 8 4 6 8 4 6 4 4 4 6 2 6 2 2 4 2 4 6 4 4 6 4 4 4 4 4 2 4 2 4 2 2 0 6 6 4 4 1 5 7 9 9 8 7 5 7 7 5 4 5 5 7 5 5 
3 5 5 3 5 5 5 3 1 5 3 5 3 5 5 3 5 4 5 5 5 4 4 4 5 5 5 7 1 3 4 6 6 1 6 4 4 6 2 6 6 8 4 6 4 4 6 2 6 2 4 6 4 4 6 8 2 4 2 6 6 6 6 2 4 2 6 4 4 6 6 0 2 6 2 5 5 7 9 9 8 7 5 7 9 7 6 7 5 7 5 5 
3 5 5 3 5 7 5 5 3 5 1 3 3 5 5 3 5 4 5 5 5 4 4 4 5 5 5 7 1 3 4 6 6 1 6 2 4 6 2 6 6 8 6 6 4 4 6 2 6 4 4 6 4 4 6 8 2 4 2 6 6 6 6 4 4 4 6 4 4 6 6 2 0 6 2 5 5 7 9 9 8 7 5 7 9 7 6 7 5 7 5 5 
3 5 5 7 5 1 3 3 5 5 5 7 5 5 1 5 7 6 7 3 5 4 4 4 5 3 5 5 7 9 6 4 2 5 6 6 6 6 8 4 6 8 2 6 4 4 6 6 6 4 6 6 2 4 4 6 4 4 6 4 4 4 4 4 4 6 6 4 4 4 4 6 6 0 4 5 5 7 9 9 8 7 5 7 7 7 6 5 5 7 5 5 
1 3 3 3 3 5 3 3 3 3 3 5 1 3 3 3 5 4 5 3 3 2 2 2 3 3 3 5 3 5 2 4 4 1 4 4 4 4 4 4 4 6 4 4 2 2 4 2 4 4 2 4 2 2 4 6 2 2 4 4 4 4 4 2 2 2 4 2 2 4 4 2 2 4 0 3 3 5 7 7 6 5 3 5 7 5 4 5 3 5 3 3 
4 4 2 6 4 4 2 6 4 2 6 8 2 4 6 4 6 5 6 4 2 5 3 3 4 4 4 2 6 8 3 5 3 4 5 7 5 5 7 3 5 7 5 5 5 5 5 5 1 5 1 3 5 3 5 5 5 3 5 5 3 3 3 5 3 3 3 5 3 3 1 5 5 5 3 0 4 6 8 8 7 6 4 6 6 4 3 4 4 6 4 6 
2 4 2 6 4 6 4 4 4 4 4 6 4 4 4 4 6 5 6 2 2 3 3 1 2 4 4 4 6 8 5 5 5 4 3 5 5 3 7 1 1 3 5 1 3 3 3 5 5 5 3 3 3 3 1 3 3 3 5 3 3 3 3 3 3 5 5 3 3 3 5 5 5 5 3 4 0 2 4 4 3 2 2 4 4 2 1 2 2 4 2 4 
4 4 4 8 6 8 6 6 6 6 6 8 6 6 6 6 8 7 8 4 4 5 5 3 4 4 6 6 8 10 7 5 7 6 5 7 7 5 9 3 1 1 7 3 5 5 5 7 7 7 5 5 5 5 3 3 5 5 7 5 3 3 5 5 5 7 7 3 5 5 7 7 7 7 5 6 2 0 2 2 1 4 4 6 4 4 3 2 4 6 2 6 
6 6 6 10 8 10 8 8 8 8 8 10 8 8 8 8 10 9 10 6 6 7 7 5 6 6 8 8 10 12 9 7 9 8 7 9 9 7 11 5 3 3 9 5 7 7 7 9 9 9 7 7 7 7 5 5 7 7 9 7 5 5 7 7 7 9 9 5 7 7 9 9 9 9 7 8 4 2 0 4 1 6 6 8 6 6 5 4 6 8 4 8 
6 6 6 10 8 10 8 8 8 8 8 10 8 8 8 8 10 9 10 6 6 7 7 5 6 6 8 8 10 12 9 7 9 8 7 9 9 7 11 5 3 1 9 5 7 7 7 9 9 9 7 7 7 7 5 5 7 7 9 7 5 5 7 7 7 9 9 5 7 7 9 9 9 9 7 8 4 2 4 0 3 6 6 8 6 6 5 4 6 8 4 8 
5 5 5 9 7 9 7 7 7 7 7 9 7 7 7 7 9 8 9 5 5 6 6 4 5 5 7 7 9 11 8 6 8 7 6 8 8 6 10 4 2 2 8 4 6 6 6 8 8 8 6 6 6 6 4 4 6 6 8 6 4 4 6 6 6 8 8 4 6 6 8 8 8 8 6 7 3 1 1 3 0 5 5 7 5 5 4 3 5 7 3 7 
4 4 4 8 6 8 6 6 6 6 6 8 6 6 6 6 8 7 8 4 4 5 5 3 2 4 6 6 8 10 7 5 7 6 5 7 7 5 9 3 3 5 7 1 5 3 3 7 7 7 5 5 5 5 3 3 5 5 7 3 5 5 3 5 5 7 7 5 5 5 7 7 7 7 5 6 2 4 6 6 5 0 4 6 4 4 3 2 4 6 4 6 
2 2 2 6 4 6 4 4 4 4 4 6 4 4 4 4 6 5 6 2 4 3 3 3 2 4 4 4 6 8 5 5 5 4 1 5 5 5 7 1 3 5 5 3 3 1 1 5 5 5 3 3 3 3 3 5 3 3 5 3 3 3 3 3 3 5 5 3 3 3 5 5 5 5 3 4 2 4 6 6 5 4 0 2 6 4 3 4 4 6 4 4 
4 4 4 8 6 8 6 6 6 6 6 8 6 6 6 6 8 7 8 4 6 5 5 5 4 6 6 6 8 10 7 7 7 6 1 7 7 7 9 3 5 7 7 5 5 3 3 7 7 7 5 5 5 5 5 7 5 5 7 5 5 5 5 5 5 7 7 5 5 5 7 7 7 7 5 6 4 6 8 8 7 6 2 0 8 6 5 6 6 8 6 6 
6 6 6 10 6 8 6 8 8 8 8 10 6 6 6 8 10 9 10 4 4 5 5 5 4 6 6 6 10 12 7 7 7 8 7 9 9 7 11 5 3 5 7 3 7 5 5 9 7 9 5 5 5 5 3 1 7 7 9 5 5 5 5 7 7 7 7 5 5 7 7 9 9 7 7 6 4 4 6 6 5 4 6 8 0 4 3 2 6 8 4 8 
4 4 4 8 4 6 4 6 6 6 6 8 4 4 6 6 8 7 8 4 2 5 3 3 4 6 4 4 8 10 5 5 5 6 5 7 7 5 9 3 3 5 7 3 5 5 5 7 5 7 3 3 5 5 3 3 5 5 7 5 5 5 5 5 5 5 5 5 3 5 5 7 7 7 5 4 2 4 6 6 5 4 4 6 4 0 1 2 4 6 4 6 
3 3 3 7 3 5 3 5 5 5 5 7 3 3 5 5 7 6 7 3 1 4 2 2 3 5 3 3 7 9 4 4 4 5 4 6 6 4 8 2 2 4 6 2 4 4 4 6 4 6 2 2 4 4 2 2 4 4 6 4 4 4 4 4 4 4 4 4 2 4 4 6 6 6 4 3 1 3 5 5 4 3 3 5 3 1 0 1 3 5 3 5 
4 4 4 8 4 6 4 6 6 6 6 8 4 4 4 6 8 7 8 2 2 3 3 3 2 4 4 4 8 10 5 5 5 6 5 7 7 5 9 3 1 3 5 1 5 3 3 7 5 7 3 3 3 3 1 1 5 5 7 3 3 3 3 5 5 5 5 3 3 5 5 7 7 5 5 4 2 2 4 4 3 2 4 6 2 2 1 0 4 6 2 6 
2 4 2 6 4 6 4 4 4 4 4 6 4 4 4 4 6 5 6 2 4 3 3 1 2 4 4 4 6 8 5 5 5 4 5 5 5 1 7 3 3 5 5 3 3 3 3 5 5 5 3 3 3 3 3 5 3 3 5 1 1 3 3 3 3 5 5 3 3 3 5 5 5 5 3 4 2 4 6 6 5 4 4 6 6 4 3 4 0 2 2 4 
4 6 4 8 6 8 6 6 6 6 6 8 6 6 6 6 8 7 8 4 6 5 5 3 4 6 6 6 8 10 7 7 7 6 7 7 7 1 9 5 5 7 7 5 5 5 5 7 7 7 5 5 5 5 5 7 5 5 7 3 3 5 5 5 5 7 7 5 5 5 7 7 7 7 5 6 4 6 8 8 7 6 6 8 8 6 5 6 2 0 4 6 
2 2 2 6 4 6 4 4 4 4 4 6 4 4 4 4 6 5 6 2 4 3 3 3 4 2 4 4 6 8 5 3 5 4 5 5 5 3 7 3 1 3 5 3 3 3 3 5 5 5 3 3 3 3 3 3 3 3 5 3 1 1 3 3 3 5 5 1 3 3 5 5 5 5 3 4 2 2 4 4 3 4 4 6 4 4 3 2 2 4 0 4 
2 4 4 6 4 6 4 4 4 4 4 6 4 2 4 4 6 5 6 4 4 3 3 3 4 4 4 4 6 8 3 5 5 4 5 5 5 5 7 5 5 7 5 5 1 3 5 5 5 5 5 3 3 3 5 7 3 3 5 5 5 5 5 3 3 5 3 3 3 5 5 5 5 5 3 6 4 6 8 8 7 6 4 6 8 6 5 6 4 6 4 0 
