VertexName	NodeType	Degree	Eccentricity
H	3	18	0.2
H_ext	4	10	0.166667
NAD	3	8	0.166667
NADH	3	8	0.166667
R7i	2	7	0.2
R11i	2	7	0.2
R16	1	7	0.166667
Pi-	3	6	0.166667
R10i	2	6	0.166667
AKG	3	6	0.166667
ATP	3	6	0.166667
R12	1	6	0.142857
Mal	3	6	0.166667
R6i	2	6	0.142857
R19	1	6	0.166667
R20i	2	6	0.142857
T1r	1	6	0.2
T8	1	6	0.166667
T12	1	6	0.166667
R3	1	5	0.2
ADP	3	5	0.166667
R15	1	5	0.2
CoA	3	5	0.166667
R18	1	5	0.166667
Fum	3	4	0.125
Pi2-	3	4	0.166667
AcCoA	3	4	0.166667
R8i	2	4	0.142857
Glu	3	4	0.142857
R17	1	4	0.142857
R1i	2	4	0.166667
CO2	4	4	0.166667
OAA	3	4	0.166667
R2i	2	4	0.2
Mal_ext	4	4	0.166667
T2r	1	4	0.142857
T3	1	4	1
T4	1	4	0.142857
T5	1	4	0.2
T6i	2	4	0.166667
T7	1	4	0.142857
Succ	3	4	0.125
R13i	2	4	0.142857
T13	1	4	0.142857
T19	1	4	0.142857
T20i	2	4	0.166667
T16	1	4	0.111111
T17	1	4	0.142857
R5	1	3	0.2
Pyr	3	3	0.166667
Pi2-_ext	4	3	0.125
Cit	3	3	0.166667
R4	1	3	0.142857
H2O_ext	4	2	0.142857
AMP	3	2	0.125
Asp	3	2	0.142857
FADm	3	2	0.166667
EtOH	3	2	0.142857
AcDH	3	2	0.142857
R14	1	2	0.142857
T9	1	2	0.166667
T10	1	2	1
T11	1	2	1
Acetate	3	2	0.166667
Glu_ext	4	2	0.142857
FADH2m	3	2	0.166667
Fum_ext	4	2	0.125
SucCoA	3	2	0.166667
R9	1	2	0.142857
T14	1	2	0.125
T15	1	2	0.142857
Isocit	3	2	0.142857
Succ_ext	4	2	0.125
AKG_ext	4	2	0.125
Cit_ext	4	1	0.166667
ADP_ext	4	1	0.125
HB	3	1	0.5
HB_ext	4	1	0.5
ATP_ext	4	1	0.125
AA_ext	4	1	0.5
Acetoacetate	3	1	0.5
NH3_ext	4	1	0.142857
Pi-_ext	4	1	0.166667
Asp_ext	4	1	0.142857
AcylCarnitine_ext	4	1	0.5
Pyr_ext	4	1	0.142857
Carnitine	3	1	0.5
Carnitine_ext	4	1	0.5
Acylcarnitine	3	1	0.5
EtOH_ext	4	1	0.111111
Citrulline	3	1	0.142857
AcCoA_ext	4	1	0.125
Ornit_ext	4	1	0.142857
Citru_ext	4	1	0.142857
Ornit	3	1	0.142857
